{"recordsCurrentPage":25,"currentPage":1,"totalPages":2,"totalRecords":30,"bulkDetailedUploadCardsRecordPojo":[{"businessName":"FINO OTP 5081","businessDisplayName":"FINO OTP 5081","cardProgramName":"fino gc","amount":"100.00","lastFourDigits":"6169","kitNumber":"250000852060","cardHolderName":"HSvVjSOrUdFRL","cardHolderMobile":"919166481921","cardHolderEmail":"elizabeth26@example.com","customerId":"250204190414510ID1CUSTID1481282","cardId":"250204190414532ID1CARD0526990"},{"businessName":"FINO OTP 5081","businessDisplayName":"FINO OTP 5081","cardProgramName":"fino gc","amount":"100.00","lastFourDigits":"9139","kitNumber":"250000852062","cardHolderName":"HSvVjSOrUdFRL","cardHolderMobile":"919166481921","cardHolderEmail":"elizabeth26@example.com","customerId":"250204190414510ID1CUSTID1481282","cardId":"250204190414818ID1CARD2556208"},{"businessName":"FINO OTP 5081","businessDisplayName":"FINO OTP 5081","cardProgramName":"fino gc","amount":"100.00","lastFourDigits":"9464","kitNumber":"250000852064","cardHolderName":"HSvVjSOrUdFRL","cardHolderMobile":"919166481921","cardHolderEmail":"elizabeth26@example.com","customerId":"250204190414510ID1CUSTID1481282","cardId":"250204190414900ID1CARD2131380"},{"businessName":"FINO OTP 5081","businessDisplayName":"FINO OTP 5081","cardProgramName":"fino gc","amount":"100.00","lastFourDigits":"6338","kitNumber":"250000852065","cardHolderName":"HSvVjSOrUdFRL","cardHolderMobile":"919166481921","cardHolderEmail":"elizabeth26@example.com","customerId":"250204190414510ID1CUSTID1481282","cardId":"250204190414849ID1CARD1961463"},{"businessName":"FINO OTP 5081","businessDisplayName":"FINO OTP 5081","cardProgramName":"fino gc","amount":"100.00","lastFourDigits":"9631","kitNumber":"250000852063","cardHolderName":"HSvVjSOrUdFRL","cardHolderMobile":"919166481921","cardHolderEmail":"elizabeth26@example.com","customerId":"250204190414510ID1CUSTID1481282","cardId":"250204190414905ID1CARD0833350"},{"businessName":"FINO OTP 5081","businessDisplayName":"FINO OTP 5081","cardProgramName":"fino gc","amount":"100.00","lastFourDigits":"0678","kitNumber":"250000852061","cardHolderName":"HSvVjSOrUdFRL","cardHolderMobile":"919166481921","cardHolderEmail":"elizabeth26@example.com","customerId":"250204190414510ID1CUSTID1481282","cardId":"250204190414808ID1CARD1504596"},{"businessName":"FINO OTP 5081","businessDisplayName":"FINO OTP 5081","cardProgramName":"fino gc","amount":"100.00","lastFourDigits":"7922","kitNumber":"250000852066","cardHolderName":"HSvVjSOrUdFRL","cardHolderMobile":"919166481921","cardHolderEmail":"elizabeth26@example.com","customerId":"250204190414510ID1CUSTID1481282","cardId":"250204190415627ID1CARD3745148"},{"businessName":"FINO OTP 5081","businessDisplayName":"FINO OTP 5081","cardProgramName":"fino gc","amount":"100.00","lastFourDigits":"3300","kitNumber":"250000852070","cardHolderName":"HSvVjSOrUdFRL","cardHolderMobile":"919166481921","cardHolderEmail":"elizabeth26@example.com","customerId":"250204190414510ID1CUSTID1481282","cardId":"250204190416018ID1CARD7848848"},{"businessName":"FINO OTP 5081","businessDisplayName":"FINO OTP 5081","cardProgramName":"fino gc","amount":"100.00","lastFourDigits":"7064","kitNumber":"250000852069","cardHolderName":"HSvVjSOrUdFRL","cardHolderMobile":"919166481921","cardHolderEmail":"elizabeth26@example.com","customerId":"250204190414510ID1CUSTID1481282","cardId":"250204190416029ID1CARD1988274"},{"businessName":"FINO OTP 5081","businessDisplayName":"FINO OTP 5081","cardProgramName":"fino gc","amount":"100.00","lastFourDigits":"5724","kitNumber":"250000852067","cardHolderName":"HSvVjSOrUdFRL","cardHolderMobile":"919166481921","cardHolderEmail":"elizabeth26@example.com","customerId":"250204190414510ID1CUSTID1481282","cardId":"250204190415819ID1CARD2925948"},{"businessName":"FINO OTP 5081","businessDisplayName":"FINO OTP 5081","cardProgramName":"fino gc","amount":"100.00","lastFourDigits":"8163","kitNumber":"250000852068","cardHolderName":"HSvVjSOrUdFRL","cardHolderMobile":"919166481921","cardHolderEmail":"elizabeth26@example.com","customerId":"250204190414510ID1CUSTID1481282","cardId":"250204190415918ID1CARD8683590"},{"businessName":"FINO OTP 5081","businessDisplayName":"FINO OTP 5081","cardProgramName":"fino gc","amount":"100.00","lastFourDigits":"7572","kitNumber":"250000852074","cardHolderName":"HSvVjSOrUdFRL","cardHolderMobile":"919166481921","cardHolderEmail":"elizabeth26@example.com","customerId":"250204190414510ID1CUSTID1481282","cardId":"250204190417916ID1CARD0856434"},{"businessName":"FINO OTP 5081","businessDisplayName":"FINO OTP 5081","cardProgramName":"fino gc","amount":"100.00","lastFourDigits":"2046","kitNumber":"250000852078","cardHolderName":"HSvVjSOrUdFRL","cardHolderMobile":"919166481921","cardHolderEmail":"elizabeth26@example.com","customerId":"250204190414510ID1CUSTID1481282","cardId":"250204190418308ID1CARD0171345"},{"businessName":"FINO OTP 5081","businessDisplayName":"FINO OTP 5081","cardProgramName":"fino gc","amount":"100.00","lastFourDigits":"4649","kitNumber":"250000852077","cardHolderName":"HSvVjSOrUdFRL","cardHolderMobile":"919166481921","cardHolderEmail":"elizabeth26@example.com","customerId":"250204190414510ID1CUSTID1481282","cardId":"250204190418416ID1CARD6959536"},{"businessName":"FINO OTP 5081","businessDisplayName":"FINO OTP 5081","cardProgramName":"fino gc","amount":"100.00","lastFourDigits":"5662","kitNumber":"250000852076","cardHolderName":"HSvVjSOrUdFRL","cardHolderMobile":"919166481921","cardHolderEmail":"elizabeth26@example.com","customerId":"250204190414510ID1CUSTID1481282","cardId":"250204190418308ID1CARD3454585"},{"businessName":"FINO OTP 5081","businessDisplayName":"FINO OTP 5081","cardProgramName":"fino gc","amount":"100.00","lastFourDigits":"1240","kitNumber":"250000852073","cardHolderName":"HSvVjSOrUdFRL","cardHolderMobile":"919166481921","cardHolderEmail":"elizabeth26@example.com","customerId":"250204190414510ID1CUSTID1481282","cardId":"250204190417826ID1CARD3685740"},{"businessName":"FINO OTP 5081","businessDisplayName":"FINO OTP 5081","cardProgramName":"fino gc","amount":"100.00","lastFourDigits":"2284","kitNumber":"250000852071","cardHolderName":"HSvVjSOrUdFRL","cardHolderMobile":"919166481921","cardHolderEmail":"elizabeth26@example.com","customerId":"250204190414510ID1CUSTID1481282","cardId":"250204190417899ID1CARD5890581"},{"businessName":"FINO OTP 5081","businessDisplayName":"FINO OTP 5081","cardProgramName":"fino gc","amount":"100.00","lastFourDigits":"4241","kitNumber":"250000852072","cardHolderName":"HSvVjSOrUdFRL","cardHolderMobile":"919166481921","cardHolderEmail":"elizabeth26@example.com","customerId":"250204190414510ID1CUSTID1481282","cardId":"250204190417707ID1CARD7333910"},{"businessName":"FINO OTP 5081","businessDisplayName":"FINO OTP 5081","cardProgramName":"fino gc","amount":"100.00","lastFourDigits":"7282","kitNumber":"250000852079","cardHolderName":"HSvVjSOrUdFRL","cardHolderMobile":"919166481921","cardHolderEmail":"elizabeth26@example.com","customerId":"250204190414510ID1CUSTID1481282","cardId":"250204190418309ID1CARD0487764"},{"businessName":"FINO OTP 5081","businessDisplayName":"FINO OTP 5081","cardProgramName":"fino gc","amount":"100.00","lastFourDigits":"4658","kitNumber":"250000852075","cardHolderName":"HSvVjSOrUdFRL","cardHolderMobile":"919166481921","cardHolderEmail":"elizabeth26@example.com","customerId":"250204190414510ID1CUSTID1481282","cardId":"250204190418352ID1CARD6282895"},{"businessName":"FINO OTP 5081","businessDisplayName":"FINO OTP 5081","cardProgramName":"fino gc","amount":"100.00","lastFourDigits":"7891","kitNumber":"250000852080","cardHolderName":"HSvVjSOrUdFRL","cardHolderMobile":"919166481921","cardHolderEmail":"elizabeth26@example.com","customerId":"250204190414510ID1CUSTID1481282","cardId":"250204190421311ID1CARD8167210"},{"businessName":"FINO OTP 5081","businessDisplayName":"FINO OTP 5081","cardProgramName":"fino gc","amount":"100.00","lastFourDigits":"2065","kitNumber":"250000852084","cardHolderName":"HSvVjSOrUdFRL","cardHolderMobile":"919166481921","cardHolderEmail":"elizabeth26@example.com","customerId":"250204190414510ID1CUSTID1481282","cardId":"250204190421331ID1CARD2985856"},{"businessName":"FINO OTP 5081","businessDisplayName":"FINO OTP 5081","cardProgramName":"fino gc","amount":"100.00","lastFourDigits":"7964","kitNumber":"250000852086","cardHolderName":"HSvVjSOrUdFRL","cardHolderMobile":"919166481921","cardHolderEmail":"elizabeth26@example.com","customerId":"250204190414510ID1CUSTID1481282","cardId":"250204190421304ID1CARD3938831"},{"businessName":"FINO OTP 5081","businessDisplayName":"FINO OTP 5081","cardProgramName":"fino gc","amount":"100.00","lastFourDigits":"3286","kitNumber":"250000852089","cardHolderName":"HSvVjSOrUdFRL","cardHolderMobile":"919166481921","cardHolderEmail":"elizabeth26@example.com","customerId":"250204190414510ID1CUSTID1481282","cardId":"250204190421468ID1CARD8420850"},{"businessName":"FINO OTP 5081","businessDisplayName":"FINO OTP 5081","cardProgramName":"fino gc","amount":"100.00","lastFourDigits":"5322","kitNumber":"250000852088","cardHolderName":"HSvVjSOrUdFRL","cardHolderMobile":"919166481921","cardHolderEmail":"elizabeth26@example.com","customerId":"250204190414510ID1CUSTID1481282","cardId":"250204190421439ID1CARD4723520"}]}